…
``` r
mts <- as_tibble(mts)
```

\###Question 1: What specialties do we have? We can use count() from
dplyr to figure out how many different catagories do we have? Are these
catagories related? overlapping? evenly distributed?

``` r
specialties <-mts %>% count(medical_specialty) 
specialties %>% arrange(desc(n))
```

    ## # A tibble: 40 × 2
    ##    medical_specialty                    n
    ##    <chr>                            <int>
    ##  1 " Surgery"                        1103
    ##  2 " Consult - History and Phy."      516
    ##  3 " Cardiovascular / Pulmonary"      372
    ##  4 " Orthopedic"                      355
    ##  5 " Radiology"                       273
    ##  6 " General Medicine"                259
    ##  7 " Gastroenterology"                230
    ##  8 " Neurology"                       223
    ##  9 " SOAP / Chart / Progress Notes"   166
    ## 10 " Obstetrics / Gynecology"         160
    ## # … with 30 more rows
…
``` r
mts %>%
  unnest_tokens(word, transcription) %>%
  group_by(medical_specialty) %>%
  count(word, sort = TRUE) %>%
  filter( !(word %in% stop_words$word) & !grepl(pattern = "^[0-9]+$", x = word)) %>%
  top_n(5, n) %>%
 arrange(medical_specialty, desc(n))
```

    ## # A tibble: 210 × 3
    ## # Groups:   medical_specialty [40]
    ##    medical_specialty       word          n
    ##    <chr>                   <chr>     <int>
    ##  1 " Allergy / Immunology" history      38
    ##  2 " Allergy / Immunology" noted        23
    ##  3 " Allergy / Immunology" patient      22
    ##  4 " Allergy / Immunology" allergies    21
    ##  5 " Allergy / Immunology" nasal        13
    ##  6 " Allergy / Immunology" past         13
    ##  7 " Autopsy"              left         83
    ##  8 " Autopsy"              inch         59
    ##  9 " Autopsy"              neck         55
    ## 10 " Autopsy"              anterior     47
    ## # … with 200 more rows
