…
``` r
library(dtplyr)
```

### Impute data using the average within the variables “male” and “hispanic.”

``` r
chs[, bmi_imp = fcoalesce(bmi, mean(bmi, na.rm = TRUE)),
by = .(male,hispanic)]
```

    ## # A tibble: 1,200 × 49
    ##    townname   sid  male race  hispanic agepft height weight   bmi asthma activ…¹
    ##    <chr>    <int> <int> <chr>    <int>  <dbl>  <int>  <int> <dbl>  <int>   <int>
    ##  1 Alpine     841     1 W            1  10.5     150     78  15.8      0       0
    ##  2 Alpine     835     0 W            0  10.1     143     69  15.3      0       0
    ##  3 Alpine     838     0 O            1   9.49    133     62  15.9      0       0
    ##  4 Alpine     840     0 W            0   9.97    146     78  16.6      0       0
    ##  5 Alpine     865     0 W            0  10.0     162    140  24.2      1       1
    ##  6 Alpine     867     0 W            1   9.96    141     94  21.5      0       0
    ##  7 Alpine     842     1 M            1   9.49    139     65  15.3      0       0
    ##  8 Alpine     839     0 M            1  10.1     142     86  19.4      0       0
    ##  9 Alpine     844     1 W            1  10.5     143     65  14.4     NA       0
    ## 10 Alpine     847     1 M            0   9.90    137     69  16.7      0       0
    ## # … with 1,190 more rows, 38 more variables: father_asthma <int>,
    ## #   mother_asthma <int>, wheeze <int>, hayfever <int>, allergy <int>,
    ## #   educ_parent <int>, smoke <int>, pets <int>, gasstove <int>, fev <dbl>,
    ## #   fvc <dbl>, mmef <dbl>, pm25_mass <dbl>, pm25_so4 <dbl>, pm25_no3 <dbl>,
    ## #   pm25_nh4 <dbl>, pm25_oc <dbl>, pm25_ec <dbl>, pm25_om <dbl>, pm10_oc <dbl>,
    ## #   pm10_ec <dbl>, pm10_tc <dbl>, formic <dbl>, acetic <dbl>, hcl <dbl>,
    ## #   hno3 <dbl>, o3_max <dbl>, o3106 <dbl>, o3_24 <dbl>, no2 <dbl>, …
…
